%YAML 1.1
%TAG !u! tag:unity3d.com,2011:
--- !u!221 &22100000
AnimatorOverrideController:
  m_ObjectHideFlags: 0
  m_PrefabParentObject: {fileID: 0}
  m_PrefabInternal: {fileID: 0}
  m_Name: Enemy Strong
  m_Controller: {fileID: 9100000, guid: 6553302608f3faa45a7bb730b148e3e3, type: 2}
  m_Clips:
  - m_OriginalClip: {fileID: 7400000, guid: a8a4497fbd272c246a3203c4ee242acc, type: 2}
    m_OverrideClip: {fileID: 7400000, guid: beb266605e584664da85d693f0947a22, type: 2}
  - m_OriginalClip: {fileID: 7400000, guid: 9ddcec006a291c74db3d57a41a6a963f, type: 2}
    m_OverrideClip: {fileID: 7400000, guid: 56d59dbe61134234ca548357027758f7, type: 2}
