%YAML 1.1
%TAG !u! tag:unity3d.com,2011:
--- !u!78 &1
TagManager:
  serializedVersion: 2
  tags:
  - Exit
  - Fruit
  - Soda
  - Coin
  layers:
  - Default
  - TransparentFX
  - Ignore Raycast
  - 
  - Water
  - UI
  - 
  - 
  - Collision Layer
  - 
  - 
  - 
  - 
  - 
  - 
  - 
  - 
  - 
  - 
  - 
  - 
  - 
  - 
  - 
  - 
  - 
  - 
  - 
  - 
  - 
  - 
  - 
  m_SortingLayers:
  - name: Default
    uniqueID: 0
    locked: 0
  - name: Floor
    uniqueID: 3364563895
    locked: 0
  - name: Obstacles
    uniqueID: 1173044947
    locked: 0
  - name: Food
    uniqueID: 1939907535
    locked: 0
  - name: Characters
    uniqueID: 3111242329
    locked: 0
